<?xml version="1.0" encoding="UTF-8" standalone="no"?>
<svg
   width="56.97578mm"
   height="57.234238mm"
   version="1.1"
   viewBox="0 0 201.9538 202.58811"
   id="svg3"
   sodipodi:docname="OpenZFS-logo.svg"
   inkscape:export-filename="OpenZFS_logo.svg"
   inkscape:export-xdpi="96"
   inkscape:export-ydpi="96"
   xmlns:inkscape="http://www.inkscape.org/namespaces/inkscape"
   xmlns:sodipodi="http://sodipodi.sourceforge.net/DTD/sodipodi-0.dtd"
   xmlns="http://www.w3.org/2000/svg"
   xmlns:svg="http://www.w3.org/2000/svg"
   xmlns:rdf="http://www.w3.org/1999/02/22-rdf-syntax-ns#"
   xmlns:cc="http://creativecommons.org/ns#"
   xmlns:dc="http://purl.org/dc/elements/1.1/">
  <defs
     id="defs3" />
  <sodipodi:namedview
     id="namedview3"
     pagecolor="#ffffff"
     bordercolor="#000000"
     borderopacity="0.25"
     inkscape:showpageshadow="2"
     inkscape:pageopacity="0.0"
     inkscape:pagecheckerboard="0"
     inkscape:deskcolor="#d1d1d1"
     inkscape:document-units="mm" />
  <title
     id="title1">OpenZFS logo</title>
  <metadata
     id="metadata1">
    <rdf:RDF>
      <cc:Work
         rdf:about="">
        <dc:format>image/svg+xml</dc:format>
        <dc:type
           rdf:resource="http://purl.org/dc/dcmitype/StillImage" />
        <dc:title>OpenZFS logo</dc:title>
      </cc:Work>
    </rdf:RDF>
  </metadata>
  <g
     transform="matrix(0.989,0,0,0.993,467.49832,-257.335)"
     id="g3">
    <g
       transform="matrix(1.25,0,0,-1.25,-388,570)"
       id="g1" />
    <g
       transform="matrix(1.25,0,0,-1.25,-211,518)"
       id="g2"
       style="display:inline" />
    <path
       d="m -308,288 c -2.12,2.13 -5.56,2.13 -7.68,0 -2.12,-2.12 -2.12,-5.57 0,-7.69 2.12,-2.13 5.56,-2.13 7.68,0 2.13,2.12 2.13,5.57 -0.002,7.69 m -1.19,152 c -3.71,3.71 -9.72,3.71 -13.4,0 -3.71,-3.71 -3.71,-9.72 0,-13.4 3.71,-3.71 9.73,-3.71 13.4,0 3.71,3.71 3.71,9.72 0,13.4 m -31.7,-18.3 c -3.71,-3.71 -3.71,-9.73 0,-13.4 3.71,-3.71 9.73,-3.71 13.4,0 3.72,3.71 3.71,9.73 0.002,13.4 -3.71,3.71 -9.73,3.71 -13.4,0 m -4.87,18.3 c -3.71,3.71 -9.73,3.71 -13.4,0 -3.72,-3.71 -3.72,-9.72 0,-13.4 3.71,-3.71 9.72,-3.71 13.4,0 3.71,3.71 3.71,9.72 0,13.4 m -31.7,-18.3 c -3.71,-3.71 -3.71,-9.73 0,-13.4 3.71,-3.71 9.73,-3.71 13.4,0.002 3.71,3.71 3.71,9.73 0,13.4 -3.71,3.71 -9.73,3.71 -13.4,0 m -4.87,18.3 c -3.71,3.71 -9.73,3.71 -13.4,-0.004 -3.71,-3.72 -3.71,-9.72 0,-13.4 3.71,-3.71 9.73,-3.71 13.4,0 3.71,3.71 3.72,9.72 -0.001,13.4 m -31.7,-18.3 c -3.71,-3.71 -3.71,-9.72 -10e-4,-13.4 3.72,-3.71 9.73,-3.71 13.4,0 3.71,3.71 3.71,9.73 0,13.4 -3.7,3.7 -9.72,3.71 -13.4,-0.007 m -4.87,18.3 c -3.71,3.71 -9.73,3.71 -13.4,0 -3.71,-3.72 -3.71,-9.73 0,-13.4 3.71,-3.71 9.72,-3.71 13.4,0 3.71,3.71 3.71,9.73 0,13.4 m -14.6,-159 c 2.13,-2.13 5.56,-2.13 7.69,0 2.12,2.12 2.12,5.57 0,7.69 -2.13,2.13 -5.57,2.13 -7.69,0 -2.12,-2.12 -2.13,-5.57 -0.002,-7.69 m 11.8,11.8 c 2.12,-2.12 5.56,-2.12 7.69,0.002 2.12,2.13 2.12,5.57 0,7.7 -2.13,2.12 -5.57,2.12 -7.69,0 -2.12,-2.13 -2.13,-5.57 0.002,-7.7 m 11.8,11.8 c 2.12,-2.13 5.57,-2.13 7.69,0 2.13,2.12 2.12,5.57 -0.001,7.69 -2.12,2.13 -5.56,2.13 -7.68,0 -2.13,-2.12 -2.13,-5.57 -0.005,-7.69 m 0.005,-23.6 c 2.12,-2.13 5.56,-2.13 7.68,0.002 2.13,2.12 2.12,5.57 0,7.69 -2.12,2.13 -5.56,2.12 -7.68,0 -2.13,-2.12 -2.13,-5.57 0,-7.69 m 11.8,35.4 c 2.13,-2.12 5.57,-2.13 7.69,0.002 2.13,2.12 2.13,5.57 0,7.7 -2.12,2.12 -5.56,2.12 -7.69,0 -2.12,-2.13 -2.12,-5.58 0,-7.7 m 0.005,-23.6 c 2.12,-2.12 5.56,-2.12 7.68,0.002 2.12,2.13 2.13,5.57 0,7.7 -2.12,2.12 -5.56,2.12 -7.69,0 -2.12,-2.13 -2.12,-5.58 0.005,-7.7 m 11.8,-11.8 c 2.12,-2.13 5.56,-2.13 7.69,0 2.12,2.12 2.12,5.57 0,7.69 -2.13,2.13 -5.57,2.12 -7.69,0 -2.12,-2.12 -2.12,-5.57 0,-7.69 m 11.8,35.4 c 2.12,-2.13 5.56,-2.12 7.69,-0.002 2.12,2.13 2.12,5.58 0,7.7 -2.12,2.12 -5.56,2.12 -7.69,0 -2.12,-2.13 -2.13,-5.57 0,-7.7 m 0,-23.6 c 2.12,-2.12 5.56,-2.12 7.69,0 2.13,2.12 2.12,5.57 -0.002,7.7 -2.12,2.12 -5.57,2.12 -7.69,0 -2.12,-2.13 -2.12,-5.58 0,-7.7 m 11.8,-11.8 c 2.13,-2.13 5.57,-2.13 7.69,0 2.12,2.12 2.12,5.57 0.002,7.69 -2.12,2.12 -5.56,2.13 -7.69,0 -2.12,-2.12 -2.12,-5.57 0,-7.69 m 3.64,109 c 3.71,-3.71 9.73,-3.71 13.4,0 3.71,3.71 3.71,9.73 0,13.4 -3.71,3.71 -9.73,3.71 -13.4,0 -3.72,-3.71 -3.72,-9.73 0,-13.4 m 4.05,-54.4 c -2.12,2.13 -5.56,2.12 -7.69,0 -2.12,-2.13 -2.12,-5.57 -0.002,-7.7 2.12,-2.12 5.57,-2.12 7.69,0.01 2.12,2.12 2.12,5.57 0,7.69 m 0,-23.6 c -2.12,2.13 -5.56,2.13 -7.69,0.003 -2.12,-2.12 -2.12,-5.57 0,-7.69 2.12,-2.13 5.57,-2.13 7.69,0 2.12,2.12 2.12,5.57 0.002,7.69 m -19.5,27.7 c 2.12,-2.12 5.56,-2.12 7.69,0 2.12,2.12 2.12,5.58 -0.001,7.7 -2.12,2.12 -5.56,2.12 -7.69,-10e-4 -2.12,-2.13 -2.12,-5.57 0.007,-7.7 m -2.88,32 c 3.71,-3.71 9.73,-3.71 13.4,0.002 3.71,3.71 3.71,9.72 0,13.4 -3.71,3.71 -9.73,3.71 -13.4,0.002 -3.71,-3.71 -3.71,-9.72 0,-13.4 m -4.87,18.3 c 3.71,3.71 3.71,9.73 0,13.4 -3.71,3.71 -9.73,3.71 -13.4,-0.002 -3.72,-3.71 -3.71,-9.72 0,-13.4 3.7,-3.71 9.73,-3.71 13.4,0 m -4.05,-85.7 c 2.12,-2.13 5.56,-2.13 7.69,0 2.12,2.12 2.12,5.57 0,7.69 -2.13,2.13 -5.56,2.13 -7.69,0.003 -2.12,-2.12 -2.12,-5.57 -10e-4,-7.69 m 0,23.6 c 2.12,-2.13 5.56,-2.13 7.69,-0.007 2.12,2.13 2.12,5.58 0,7.71 -2.13,2.12 -5.57,2.13 -7.69,-0.007 -2.12,-2.13 -2.12,-5.57 0,-7.69 m 35.4,-11.8 c 2.12,-2.12 5.56,-2.13 7.69,0 2.12,2.13 2.12,5.58 -0.002,7.7 -2.12,2.12 -5.56,2.12 -7.69,10e-4 -2.12,-2.13 -2.12,-5.58 0,-7.7 m 0,-23.6 c 2.12,-2.12 5.56,-2.12 7.69,0 2.12,2.13 2.12,5.57 0,7.7 -2.12,2.12 -5.56,2.12 -7.69,-0.006 -2.12,-2.12 -2.12,-5.57 0,-7.7 m 11.8,11.8 c 2.13,-2.13 5.58,-2.13 7.69,0 2.12,2.12 2.12,5.57 0,7.69 -2.12,2.13 -5.56,2.13 -7.69,0 -2.12,-2.12 -2.12,-5.57 0,-7.69 m 0.002,-23.6 c 2.12,-2.13 5.57,-2.13 7.69,0 2.12,2.12 2.12,5.56 0,7.69 -2.12,2.13 -5.56,2.13 -7.69,0 -2.12,-2.12 -2.12,-5.57 0,-7.69 m 11.8,11.8 c 2.12,-2.12 5.57,-2.12 7.69,0 2.12,2.13 2.12,5.57 0,7.7 -2.12,2.13 -5.57,2.13 -7.69,0 -2.12,-2.12 -2.12,-5.56 0,-7.7 m 58.8,-17.9 c 0,-8.58 -6.96,-15.6 -15.6,-15.6 h -173 c -8.59,0 -15.6,6.96 -15.6,15.6 v 59.4 h 23.2 l -23.2,54.3 v 59.4 c 0,8.59 6.96,15.6 15.6,15.6 h 173 c 8.59,0 15.6,-6.96 15.6,-15.6 v -59.4 h -23.2 l 23.2,-54.3 z"
       fill="#2a667f"
       id="path3"
       style="display:inline;fill:#444444;fill-opacity:1" />
  </g>
</svg>
